{
  "es": {
    "intro": "Buenas! Estoy aquí para organizar vuestras quedadas. \nPara crear una quedada simplemente usad el comando /create\nPara uniros o salir de una quedada a la que os habéis unido simplemente usad el comando /join o /leave\nEl comando /show muestra todas las quedadas activas del grupo y para elminar una quedada que hayas creado usa el comando /delete\n\nA disfrutar!",
    "goodbye": "Hasta pronto %s, espero no haber dicho nada %s",
    "wellcome": "Bienvenido a %s, %s",
    "insert_name": "Vamos a crear una nueva quedada. Ponle un nombre.",
    "insert_descr": "Ponle una descripción.",
    "insert_time": "¿Cuando será?",
    "insert_max": "¿Hay un número máximo? (-1 si no lo hay)",
    "done": "Perfecto! la quedada %s se ha creado.",
    "no_qdd": "Lo siento... no veo que hayas creado ninguna quedada.",
    "select_delete": "¿Cuál de tus quedadas quieres borrar?",
    "deleted": "La quedada %s ha sido borrada",
    "no_delete": "Solo el creador de la quedada puede eliminarla",
    "select_join": "Dime a que quedada te quieres unir",
    "join_success": "Listo, te has unido a %s",
    "join_fail": "Vaya... la quedada ya esta llena",
    "no_active_qdd": "Lo siento, no hay quedades activas en este grupo. Usa /create para crear una nueva.",
    "is_joined": "Ya te has unido a esta quedada",
    "select_leave": "Dime de que quedada quieres salir",
    "leave_success": "Te has ido de la quedada",
    "show_title": "Estas son las quedadas activas:",
    "all": "Sin límite",
    "users": "usuarios",
    "name_exists": "Ya existe una quedada con ese nombre, escoge otro",
    "notoshow": "No hay quedadas para mostrar",
    "select_lang" : "Elige un idioma",
    "lang_success":"El idioma se ha cambiado correctamente"
  },
  "en": {
    "intro": "Hi! I am here to organize your meetups. \nIn order to create a new meetup just use the command /create\nJoining and leaving a meetups is as easy as using the command /join or /leave respectively.\nThe command /show will show all the previously defined meetups and using /delete you can delete anyone you have created\n\nEnjoy!",
    "goodbye": "See you soon %s, I hope %s",
    "wellcome": "Wellcome to %s, %s",
    "insert_name": "Ok, lets create a new meetup. Tell me the name.",
    "insert_descr": "Now add a description.",
    "insert_time": "When will it be?",
    "insert_max": "How many people? (-1 if there is no limit)",
    "done": "Perfect! the meetup %s hass been created.",
    "no_qdd": "I'm sorry... I don't think you have created any meetup.",
    "select_delete": "Which one of your meetups you want to delete?",
    "deleted": "The meetup %s has been deleted.",
    "no_delete": "Only the creator can delete it.",
    "select_join": "So, what meetup do you want to join.",
    "join_success": "Yay! You have joined %s!",
    "join_fail": "Ouch... the meetup is full.",
    "no_active_qdd": "Sorry but it seems that there are no active meetups in this groups. Use /create to create a new one.",
    "is_joined": "You are already in this meetup.",
    "select_leave": "What meeup do you want to leave?",
    "leave_success": "You left from %s",
    "show_title": "These are the active meetups:",
    "all": "No limit",
    "users": "users",
    "name_exists": "That name is being used by another meetup, please ues another one.",
    "notoshow": "There are no meetups to show.",
    "select_lang" : "Choose a language",
    "lang_success":"The language has been changed successfully"
  }
}
